// Jest Snapshot v1, https://goo.gl/fbAQLP

exports[`Does render correctly 1`] = `
<div class="modal fade show">
  <div>
    <div class="modal-blackscreen"></div>
    <div class="modal-dialog">
      <div class="modal-content">
        <div class="modal-header">
          <h5><strong></strong></h5>
          <div><button type="button" class="close"><i class="fas fa-times"></i></button></div>
        </div>
        <div class="modal-body"></div>
      </div>
    </div>
  </div>
</div>
`;

exports[`Does render slot correctly 1`] = `
<div class="modal fade show">
  <div>
    <div class="modal-blackscreen"></div>
    <div class="modal-dialog">
      <div class="modal-content">
        <div class="modal-header">
          <h5><strong></strong></h5>
          <div><button type="button" class="close"><i class="fas fa-times"></i></button></div>
        </div>
        <div class="modal-body">
          <p>test content</p>
        </div>
      </div>
    </div>
  </div>
</div>
`;
